<svg width="375" height="117" viewBox="0 0 375 117" fill="none" xmlns="http://www.w3.org/2000/svg">
<g filter="url(#filter0_dd_10108_800)">
<path d="M121.662 31.5C66.789 32.7 17.6903 18.3333 0 11V117H375V11C347.964 30.5 276.869 31 255.34 31C233.812 31 229.806 34 229.806 42.5C229.806 51 234.385 74.1784 207.777 77.5C155.708 84 145.54 66.5 144.693 55.5C143.692 42.5 146.195 31.5 121.662 31.5Z" fill="white"/>
</g>
<defs>
<filter id="filter0_dd_10108_800" x="-15" y="0" width="405" height="136" filterUnits="userSpaceOnUse" color-interpolation-filters="sRGB">
<feFlood flood-opacity="0" result="BackgroundImageFix"/>
<feColorMatrix in="SourceAlpha" type="matrix" values="0 0 0 0 0 0 0 0 0 0 0 0 0 0 0 0 0 0 127 0" result="hardAlpha"/>
<feOffset dx="-1.5"/>
<feGaussianBlur stdDeviation="2"/>
<feComposite in2="hardAlpha" operator="out"/>
<feColorMatrix type="matrix" values="0 0 0 0 0.513021 0 0 0 0 0.666927 0 0 0 0 0.820833 0 0 0 0.12 0"/>
<feBlend mode="normal" in2="BackgroundImageFix" result="effect1_dropShadow_10108_800"/>
<feColorMatrix in="SourceAlpha" type="matrix" values="0 0 0 0 0 0 0 0 0 0 0 0 0 0 0 0 0 0 127 0" result="hardAlpha"/>
<feOffset dy="4"/>
<feGaussianBlur stdDeviation="7.5"/>
<feComposite in2="hardAlpha" operator="out"/>
<feColorMatrix type="matrix" values="0 0 0 0 0 0 0 0 0 0 0 0 0 0 0 0 0 0 0.15 0"/>
<feBlend mode="normal" in2="effect1_dropShadow_10108_800" result="effect2_dropShadow_10108_800"/>
<feBlend mode="normal" in="SourceGraphic" in2="effect2_dropShadow_10108_800" result="shape"/>
</filter>
</defs>
</svg>
